{"status":"ok","total_hits":5186,"page":1,"total_pages":1038,"page_size":5,"articles":[{"summary":"Skip to main content Afghanistan Afghanistan: Education in Emergencies Working Group (EiEWG) Dashboard \u2013 Jan 2021 Download Infographic (PDF | 1.13 MB | Page 1 of 3) Afghanistan + 2 more Coming Back to Afghanistan: Study on Deported Minors' Return and Reintegration Needs in the Western region Afghanistan Afghanistan Protection of Civilians in Armed Conflict Annual Report 2020 Afghanistan + 1 more Support for Gender Equality: Lessons from the U.S. Experience in Afghanistan (February 2021) Afghanis","country":"NA","clean_url":"reliefweb.int","author":"Education Cluster","rights":"You should respect the intellectual property rights of the original source. Please contact the source directly if you want to re-use their content.","link":"https://reliefweb.int/report/afghanistan/afghanistan-education-emergencies-working-group-eiewg-dashboard-jan-2021","rank":"2389","topic":"NA","language":"en","title":"Afghanistan: Education in Emergencies Working Group (EiEWG) Dashboard \u2013 Jan 2021","published_date":"2021-02-25 05:08:11","_id":"4e9060efb1ca3b13f8b1508bc5ec509d","_score":14.669344},{"summary":"Skip to main content Afghanistan Afghanistan: Population affected by natural hazards according to Rapid Assessment Form (RAF), January 01 - February 23, 2021 Download Infographic (PDF | 579.1 KB) International Organization for Migration Copyright \u00a9 IOM. All rights reserved. Afghanistan + 2 more Coming Back to Afghanistan: Study on Deported Minors' Return and Reintegration Needs in the Western region Afghanistan + 2 more Afghanistan: Weekly Humanitarian Update (15 \u2013 21 February 2021) Afghanistan","country":"NA","clean_url":"reliefweb.int","author":"iMMAP","rights":"You should respect the intellectual property rights of the original source. Please contact the source directly if you want to re-use their content.","link":"https://reliefweb.int/report/afghanistan/afghanistan-population-affected-natural-hazards-according-rapid-assessment-form-3","rank":"2389","topic":"NA","language":"en","title":"Afghanistan: Population affected by natural hazards according to Rapid Assessment Form (RAF), January 01","published_date":"2021-02-25 16:54:48","_id":"773eb0f9e108f5e860161670ea15bb3f","_score":14.640237},{"summary":"Pasukan keamanan mengambil bagian dalam operasi yang sedang berlangsung melawan militan Taliban di distrik Arghandad di Provinsi Kandahar, Afghanistan, 2 November 2020. (Foto: AP)Jakarta - Para pemimpin Afghanistan mengaku merasa kecewa sekaligus frustasi, usai setahun setelah perjanjian AS-Taliban. Hal ini lantaran meningkatnya jumlah kekerasan yang dilakukan oleh kelompok militan yang telah memakan korban warga sipil. Perjanjian itu, yang ditandatangani pada 29 Februari 2020, meminta penarikan semua pasukan AS sebelum Mei 2021, tetapi hanya jika Taliban menepati janji untuk memutuskan hubungan dengan kelompok-kelompok teroris dan berpartisipasi dalam pembicaraan intra-Afghanistan untuk gencatan senjata permanen dan peta jalan politik bagi Afghanistan.","country":"ID","clean_url":"liputan6.com","author":null,"rights":"liputan6.com","link":"https://www.liputan6.com/global/read/4494357/1-tahun-kesepakatan-as-taliban-afghanistan-kecewa-situasi-tak-berubah","rank":"12056","topic":"news","language":"id","title":"1 Tahun Kesepakatan AS-Taliban, Afghanistan Kecewa Situasi Tak Berubah","published_date":"2021-02-28 07:00:22","_id":"90fb6c92d5a4c4cb17b9a84759029f3c","_score":14.023865},{"summary":"Germany is taking steps to allow its military to stay in Afghanistan beyond the May 1st deadline set by the US-Taliban peace deal. On Wednesday, Chancellor Angela Merkel's Cabinet approved a draft mandate that would allow German troops to stay in Afghanistan until January 31st, 2022. The mandate still needs to be approved by Germany's parliament. The current mandate for Afghanistan expires at the end of March. Germany currently has 1,100 troops in Afghanistan, the second-highest number next to the US, which currently has 2,500 troops in the country.","country":"NA","clean_url":"antiwar.com","author":"Dave DeCamp","rights":"antiwar.com","link":"https://news.antiwar.com/2021/02/24/germany-prepares-to-stay-in-afghanistan/","rank":"7320","topic":"NA","language":"en","title":"Germany Prepares to Stay in Afghanistan","published_date":"2021-02-24 23:17:49","_id":"39eaf1e2c90f8bb489bc25d25c3f0e39","_score":14.014714},{"summary":"Rabu, 24 Februari 2021 16:37 lihat foto DOK KOMPAS.COMJUSUF KALLA\u00a0 BANGKAPOS.COM- Mantan Wapres Jusuf Kalla mengundang Taliban Afghanistan makan\u00a0di\u00a0rumahnya, Jakarta. Alasan Jusuf\u00a0Kalla mengundang perwakilan Taliban ke kediamannya di Jakarta untuk membicarakan rencana mengakhiri konflik di Afghanistan. \"Jadi saya undang Taliban ke sini, makan di rumah ini,\" ujar Kalla dalam program Beginu yang tayang di kanal Youtube Kompas.com, Senin (22/2/2021). Diketahui, dalam jamuan di Gulkhana Palace, Kompleks Istana Kepresidenan Afghanistan di Kabul, 24 Desember 2020, Presiden Afghanistan Ashraf\u00a0Ghani meminta JK untuk memimpin perundingan\u00a0damai tersebut.","country":"ID","clean_url":"tribunnews.com","author":null,"rights":"tribunnews.com","link":"https://bangka.tribunnews.com/2021/02/24/jusuf-kalla-ungkap-alasannya-undang-perwakilan-taliban-afghanistan-makan-di-rumahnya-akui-beresiko","rank":"6404","topic":"news","language":"id","title":"Jusuf Kalla Ungkap Alasannya Undang Perwakilan Taliban Afghanistan Makan di Rumahnya, Akui Beresiko","published_date":"2021-02-24 09:37:48","_id":"bb37e7a5c70ca87b9157d3463a1304dd","_score":13.846196}],"user_input":{"q":"Afghanistan","search_in":"title_summary","lang":null,"country":null,"from":"2021-02-23 00:00:00","to":null,"ranked_only":"True","from_rank":null,"to_rank":null,"sort_by":"relevancy","page":1,"size":5,"sources":null,"not_sources":null,"topic":null,"media":"False"}}
