{"status":"ok","total_hits":556,"page":1,"total_pages":112,"page_size":5,"articles":[{"summary":"Latest travel advice for Albania including safety and security, entry requirements, travel warnings and health","country":"NA","clean_url":"gov.uk","author":null,"rights":"gov.uk","link":"https://www.gov.uk/foreign-travel-advice/albania","rank":"19040","topic":"politics","language":"en","title":"Albania travel advice","published_date":"2021-02-24 15:56:07","_id":"559f764fbb9c68aa6e3c465ebe0a00c4","_score":17.280302},{"summary":"New information on how to get a COVID-19 vaccine if you live in Albania (\u2018Coronavirus' page)","country":"NA","clean_url":"gov.uk","author":null,"rights":"gov.uk","link":"https://www.gov.uk/foreign-travel-advice/albania","rank":"19040","topic":"travel","language":"en","title":"Albania","published_date":"2021-02-24 15:56:07","_id":"1dfb980e4ea3d1d4333d8dede12f9711","_score":17.280302},{"summary":"Nip, tuck, mask: cosmetic surgery sweeps Albania along with virus","country":"AU","clean_url":"ibtimes.com.au","author":null,"rights":"ibtimes.com.au","link":"https://www.ibtimes.com.au/nip-tuck-mask-cosmetic-surgery-sweeps-albania-along-virus-1687036?utm_source=Public&utm_medium=Feed&utm_campaign=Distribution","rank":"31298","topic":"news","language":"en","title":"Nip, Tuck, Mask: Cosmetic Surgery Sweeps Albania Along With Virus","published_date":"2021-02-26 03:58:16","_id":"4973ad1c6c1e1de644c62f8558664d28","_score":17.11371},{"summary":"Non-stop from Paris, France to Tirana, Albania for only \u20ac22 roundtrip.","country":"US","clean_url":"secretflying.com","author":"Admin","rights":"secretflying.com","link":"https://www.secretflying.com/posts/paris-france-to-tirana-albania-for-only-e22-roundtrip/","rank":"76099","topic":"travel","language":"en","title":"Paris, France to Tirana, Albania for only \u20ac22 roundtrip (Wizz members price) (Apr-Jul dates)","published_date":"2021-02-25 09:27:53","_id":"d68b4ef360f017f3127d04f49d259cbd","_score":16.772514},{"summary":"Non-stop from Vienna, Austria to Tirana, Albania for only \u20ac19 roundtrip.","country":"US","clean_url":"secretflying.com","author":"Admin","rights":"secretflying.com","link":"https://www.secretflying.com/posts/vienna-austria-to-tirana-albania-for-only-e19-roundtrip/","rank":"76976","topic":"travel","language":"en","title":"Vienna, Austria to Tirana, Albania for only \u20ac19 roundtrip (Wizz members price) (Mar-Apr dates)","published_date":"2021-02-23 12:17:18","_id":"5b0618a1a0af95c1c23584dfe39caff1","_score":16.770502}],"user_input":{"q":"Albania","search_in":"title_summary","lang":null,"country":null,"from":"2021-02-23 00:00:00","to":null,"ranked_only":"True","from_rank":null,"to_rank":null,"sort_by":"relevancy","page":1,"size":5,"sources":null,"not_sources":null,"topic":null,"media":"False"}}
