{"status":"ok","total_hits":869,"page":1,"total_pages":174,"page_size":5,"articles":[{"summary":"Source: Xinhua| 2021-03-01 02:29:25|Editor: huaxia Video PlayerClose ALGIERS, Feb. 28 (Xinhua) -- Algeria on Sunday reported 132 new COVID-19 cases, bringing the total number of cases in the North African country to 122,092. The death toll from the virus in Algeria rose to 2,983 after four new fatalities were added, said the Algerian Ministry of Health in a statement. Meanwhile, 122 more patients recovered from the disease, bringing the total number of recoveries in the country to 78,158, the statement added.","country":"CH","clean_url":"xinhuanet.com","author":null,"rights":"xinhuanet.com","link":"http://www.xinhuanet.com/english/africa/2021-03/01/c_139773922.htm","rank":"197","topic":"news","language":"en","title":"Algeria reports 132 new COVID-19 cases, 122,092 in total","published_date":"2021-02-28 18:29:25","_id":"aa42c7b6dcc0d08bef7bba9496fd3949","_score":17.115637},{"summary":"Source: Xinhua| 2021-02-25 13:10:50|Editor: huaxia Video PlayerClose ALGIERS, Feb. 24 (Xinhua) -- A donation of Chinese Sinopharm coronavirus vaccines arrived in Algeria on Wednesday to help the North African nation combat the pandemic. A military jet of the Algerian Air Force carrying the batch of vaccines landed in the evening at the Boufarik military airport. Chinese Ambassador to Algeria Li Lianhe said that the donation is a demonstration of solidarity between China and Algeria. \"The two friendly countries have been helping each other overcome this pandemic since its outbreak, which constitutes a solidarity model to follow for the international community,\" he said.","country":"CH","clean_url":"xinhuanet.com","author":null,"rights":"xinhuanet.com","link":"http://www.xinhuanet.com/english/africa/2021-02/25/c_139766308.htm","rank":"197","topic":"news","language":"en","title":"Algeria receives donation of anti-COVID-19 vaccine from China","published_date":"2021-02-25 05:10:50","_id":"f20b3fe6228e225c5e1e40923835bcaa","_score":17.015144},{"summary":"Source: Xinhua| 2021-03-02 04:01:44|Editor: huaxia Video PlayerClose ALGIERS, March 1 (Xinhua) -- Algeria on Monday reported 163 new COVID-19 cases, raising the total number in the North African country to 122,255. The death toll from the virus rose to 2,983 after four new fatalities were added, said the Algerian Ministry of Health in a statement. Meanwhile, 136 more patients recovered from the disease, bringing the total number of recoveries in the country to 78,294, the statement added. Algerian Prime Minister Abdelaziz Djerad announced on Monday extension of the curfew period in 19 provinces by 15 days since March 2, official APS news agency reported.","country":"CH","clean_url":"xinhuanet.com","author":null,"rights":"xinhuanet.com","link":"http://www.xinhuanet.com/english/africa/2021-03/02/c_139776326.htm","rank":"198","topic":"news","language":"en","title":"Algeria reports 163 new COVID-19 cases, 122,255 in total","published_date":"2021-03-01 20:01:44","_id":"9d9db1017a9faad161a328b46b6efbf3","_score":16.751097},{"summary":"Source: Xinhua| 2021-03-03 03:46:27|Editor: huaxia Video PlayerClose ALGIERS, March 2 (Xinhua) -- Algeria on Tuesday reported 175 new COVID-19 cases, raising the total number in the North African country to 122,430. The death toll from the virus rose to 2,991 after four new fatalities were added, said the Algerian Ministry of Health in a statement. Meanwhile, 143 more patients recovered from the disease, bringing the total number of recoveries in the country to 78,437, the statement added. Algerian Health Minister Abderrahmane Benbouzid announced on Tuesday that his country will receive in March hundreds of thousands of doses of COVID-19 vaccines, the official APS news agency reported.","country":"CH","clean_url":"xinhuanet.com","author":null,"rights":"xinhuanet.com","link":"http://www.xinhuanet.com/english/africa/2021-03/03/c_139778862.htm","rank":"198","topic":"news","language":"en","title":"Algeria reports 175 new COVID-19 cases, 122,430 in total","published_date":"2021-03-02 19:46:27","_id":"157964079b7a4ebb0fe13884b24da909","_score":16.751097},{"summary":"Algeria has received 200,000 doses of the Sinopharm vaccine from China. Algeria has received 200,000 doses of the Sinopharm vaccine from longstanding ally China, the official APS news agency said Thursday, boosting the North African nation's fight against Covid-19. China's ambassador to Algiers, Li Lianhe, had said last week that Beijing would gift Algeria 200,000 vaccines. The delivery arrived late Wednesday at the Boufarik military airport west of the capital Algiers, APS reported, citing Communications Minister Ammar Belhimer.","country":"NA","clean_url":"alaraby.co.uk","author":"The New Arab Staff & Agencies","rights":"alaraby.co.uk","link":"https://english.alaraby.co.uk/english/news/2021/2/25/algeria-receives-200-000-coronavirus-jabs-from-china","rank":"9019","topic":"NA","language":"en","title":"Algeria receives 200,000 coronavirus jabs from China","published_date":"2021-02-25 22:03:03","_id":"7b8c53cec75494808581f893d8354533","_score":16.541885}],"user_input":{"q":"Algeria","search_in":"title_summary","lang":null,"country":null,"from":"2021-02-23 00:00:00","to":null,"ranked_only":"True","from_rank":null,"to_rank":null,"sort_by":"relevancy","page":1,"size":5,"sources":null,"not_sources":null,"topic":null,"media":"False"}}
