{"status":"ok","total_hits":10000,"page":1,"total_pages":2000,"page_size":5,"articles":[{"summary":"The Green River flavor is part of Chicago's History, dating back to 1919 when Schoenhofen Edelweiss Brewing Company began bottling and selling it. During prohibition it became extremely popuplar. Since there are so many Chicago St. Patrick's Day Traditions that won't be happening this year. Time Out Chicago Reports: \"Eli's Cheesecake and Green River Soda have joined forces to create Eli's Green River Cheesecake, a neon green confection that combines the lime flavor of the Chicago soft drink with lime gel\u00e9e topping and a butter shortbread cookie crust.","country":"NA","clean_url":"radio.com","author":null,"rights":"radio.com","link":"https://www.radio.com/us99/latest/elis-is-making-green-river-cheesecake-for-st-patricks-day","rank":"1808","topic":"NA","language":"en","title":"Eli's is making Green River-flavored cheesecake for St. Patrick's Day","published_date":"2021-03-01 15:01:40","_id":"75c82254df2d5beb28169fa31b4f2888","_score":22.442692},{"summary":"Published: 2021-03-02 11:44:00 Updated: 2021-03-02 11:44:00 The Cheesecake Factory is offering $10 off a $50 pick-up or delivery order through March 7! Here are the offers: * Get $10 off a $50 pick-up order when you use the code MARCH10 at online checkout through March 7, 2021. * Get\u00a0$10 off a $50 DoorDash delivery order when you use the code MARCH10 at online checkout through March 7, 2021. See the details on their website. Tags: The Cheesecake Factory, restaurant coupon Web Editor Faye Prosser Copyright 2021 by Capitol Broadcasting Company.","country":"NA","clean_url":"wral.com","author":null,"rights":"Copyright 2021 by Capitol Broadcasting Company. All rights reserved. This material may not be published, broadcast, rewritten or redistributed.","link":"https://www.wral.com/the-cheesecake-factory-10-off-50-pick-up-or-delivery-order/19554065/","rank":"3268","topic":"NA","language":"en","title":"The Cheesecake Factory: $10 off $50 pick-up or delivery order","published_date":"2021-03-02 16:44:00","_id":"4f1857ad28949ccf82170e216902d6dd","_score":21.70042},{"summary":"February 24, 2021 04:15 PM Eastern Standard Time CALABASAS HILLS, Calif.--(BUSINESS WIRE)--The Cheesecake Factory Incorporated (NASDAQ: CAKE) today announced that it will present at the Raymond James 42nd Annual Institutional Investors Conference on March 2, 2021 at 1:20 p.m. Eastern Time. David Gordon, President, and Matthew Clark, Executive Vice President and Chief Financial Officer, will present on behalf of the Company. The presentation will be webcast on the Company's website at investors.thecheesecakefactory.","country":"NA","clean_url":"businesswire.com","author":null,"rights":"Copyright 2021, Business Wire.","link":"https://www.businesswire.com/news/home/20210224005948/en/The-Cheesecake-Factory-to-Present-at-the-Raymond-James-42nd-Annual-Institutional-Investors-Conference","rank":"307","topic":"business","language":"en","title":"The Cheesecake Factory to Present at the Raymond James 42nd Annual Institutional Investors Conference","published_date":"2021-02-24 21:15:00","_id":"21109979259b671c37d28c71e639b52c","_score":21.187263},{"summary":"MBA ARI Chiffon Cheesecake Melayani pemesanan Chiffon Cheesecake dengan taburan keju kotak kotak di dalamnya, dengan ukuran loyang 18 & 22 cm. Chiffon cheesecake loyang 18 cm Rp 30.000. Chiffon cheesecake loyang 22 cm Rp 55.000. Ari Chiffon Cheesecake (ist) Info dan Pemesanan Alamat : Jl CONDROKUSUMO DALAM VII / 12 RT 8 RT 2 BONGSARI SEMARANG email : arininuksusanti@gmail.com instagram : Rusdhiyana sahe WhatsApp: 08995952850 atau Chat Langsung","country":"ID","clean_url":"tribunnews.com","author":null,"rights":"tribunnews.com","link":"https://jateng.tribunnews.com/2021/02/26/chiffon-cheesecake-mba-ari-lembut-di-luar-lumer-di-dalam","rank":"6395","topic":"news","language":"id","title":"Chiffon Cheesecake Mba Ari, Lembut di Luar Lumer di Dalam","published_date":"2021-02-26 10:33:58","_id":"c78aa6545b4c8a65583120709c3a01db","_score":19.336622},{"summary":"A Jeffersonville food truck has won a national prize for its decadent-sounding caramel-topped pumpkin cheesecake brownie recipe. The My Favorite Things food truck, owned by Lea Ann Macrery, is one of 20 winners of the Neighborhood to Nation recipe contest sponsored by General Mills. According to a news release from the company, winners each receive $5,000, 'robust marketing support' and the chance to win the 'People's Choice' grand prize for an additional $5,000 to be donated to a local food bank.","country":"US","clean_url":"burlingtonfreepress.com","author":"Brent Hallenbeck, Burlington Free Press","rights":"Copyright 2021, GANNETT","link":"https://www.burlingtonfreepress.com/story/life/2021/02/23/vt-food-truck-wins-general-mills-cooking-contest-prize/4556166001/","rank":"10037","topic":"news","language":"en","title":"Does a Vermont-made pumpkin cheesecake brownie sound appealing? General Mills thought so.","published_date":"2021-02-23 17:32:26","_id":"627cd0d9cf2d47f0f9def5f4b9fac270","_score":19.193626}],"user_input":{"q":"Company Cheesecake","search_in":"title_summary","lang":null,"country":null,"from":"2021-02-23 00:00:00","to":null,"ranked_only":"True","from_rank":null,"to_rank":null,"sort_by":"relevancy","page":1,"size":5,"sources":null,"not_sources":null,"topic":null,"media":"False"}}
