{"status":"ok","total_hits":6,"page":1,"total_pages":2,"page_size":5,"articles":[{"summary":"Jayapura (ANTARA) - Jajaran Pangkalan TNI AU (Lanud) Silas Papare Jayapura, Papua, menciptakan sebuah lagu yang dipersembahkan untuk pemuda adat Papua. Komandan Lanud (Danlanud) Silas Papare Marsma TNI Budhi Achmadi di Jayapura, Senin, mengatakan lagu berjudul \"Mars Pemuda Adat Papua\" diciptakan dengan dibantu Galih Setiawan, Wendy Dwi Aditya dalam proses aransemennya yang digarap di Studio Starlight Jakarta, sementara untuk proses edit\u00a0video dilaksanakan oleh Staf Penerangan Lanud Silas Papare Jayapura.","country":"ID","clean_url":"antaranews.com","author":"Hendrina Dian Kandipi","rights":"antaranews.com","link":"https://papua.antaranews.com/berita/620379/lanud-silas-papare-jayapura-ciptakan-lagu-daerah-mars-pemuda-adat-papua","rank":"12125","topic":"news","language":"id","title":"Lanud Silas Papare Jayapura ciptakan lagu daerah mars pemuda adat Papua","published_date":"2021-03-01 08:06:54","_id":"cd2b0811514b4a7240ed746e458a41a6","_score":23.488579},{"summary":"TRIBUNNEWS.COM, JAYAPURA - Komandan Lanud Silas Papare, Marsma TNI Budhi Achmadi kembali menciptakan sebuah lagu dengan judul 'Mars Pemuda Adat Papua'\u00a0lagu ini dipersembahkan untuk Dewan Pimpinan Nasional Pemuda Adat Papua. Danlanud Silas Papare dibantu Galih Setiawan, Wendy Dwi Aditya dalam proses aransemennya yang digarap di Studio Starlight Jakarta, sementara untuk proses editing video dilaksanakan oleh Staf Penerangan Lanud Silas Papare, Jayapura. Danlanud menyampaikan bahwa produksi lagu tersebut merupakan implementasi dari pelaksanaan konsep 3K (Komunikasi, Koordinasi, dan Kolaborasi) yang menjadi penekanan Panglima TNI Marsekal Hadi Tjahjanto, S.","country":"ID","clean_url":"tribunnews.com","author":null,"rights":"2021 Tribunnews.com","link":"https://www.tribunnews.com/regional/2021/03/01/mars-pemuda-adat-papua-lagu-persembahan-komandan-lanud-silas-papare-marsma-tni-budhi-achmadi","rank":"6350","topic":"NA","language":"id","title":"Mars Pemuda Adat Papua Lagu Persembahan Komandan Lanud Silas Papare, Marsma TNI Budhi Achmadi","published_date":"2021-03-01 10:58:13","_id":"924645b8adc0bd7126e376f1628d4f81","_score":22.812946},{"summary":"JAYAPURA \u2013 Dalam memperkuat hubungan masyarakat Papua yang sudah terjalin, Komandan Lanud Silas Papare, Marsma TNI AU Budhi Achmadi kembali menciptakan sebuah lagu dengan judul \"Mars Pemuda Adat Papua\". Lagu ini dipersembahkan untuk Dewan Pimpinan Nasional Pemuda Adat Papua. (Baca juga: 72 Tahun Jadi Misteri, Siapa Perancang Serangan Umum 1 Maret?) Danlanud Silas Papare dibantu Galih Setiawan, Wendy Dwi Aditya dalam proses aransemennya yang digarap di Studio Starlight Jakarta, sementara untuk proses editing video dilaksanakan oleh Staf Penerangan Lanud Silas Papare, Jayapura.","country":"ID","clean_url":"okezone.com","author":null,"rights":"okezone.com","link":"https://news.okezone.com/read/2021/03/01/340/2370215/hadiah-spesial-jenderal-tni-au-untuk-pemuda-papua","rank":"17408","topic":"news","language":"id","title":"Hadiah Spesial Jenderal TNI AU untuk Pemuda Papua","published_date":"2021-03-01 07:54:13","_id":"f411ada3327c366b78cba7e666e21b07","_score":21.907753},{"summary":"Ashen Bandara has been named in the Sri Lankan squad for the first time.(The Papare) by Rex ClementineOver the years, there's been a few concerns about Sri Lanka's poor fielding standards. Dropped catches have cost the national cricket team dearly with costliest of them being at the Champions Trophy in 2017 in Wales when Thisara Perera put down Sarfraz Ahmed. At the post match media briefing, the Pakistan captain rubbed salt into wounds saying, \u2018I will remember it for the rest of my life and he will remember it for the rest of his life.","country":"US","clean_url":"island.lk","author":null,"rights":"island.lk","link":"http://island.lk/ashen-bandara-set-to-raise-sri-lankas-fielding-standards/","rank":"52379","topic":"business","language":"en","title":"Ashen Bandara set to raise Sri Lanka's fielding standards","published_date":"2021-02-23 00:02:13","_id":"081b403d1eaa44f4697f9f5ccb23bce1","_score":12.532016},{"summary":"Ashen Bandara has been named in the Sri Lankan squad for the first time.(The Papare) by Rex ClementineOver the years, there's been a few concerns about Sri Lanka's poor fielding standards. Dropped catches have cost the national cricket team dearly with costliest of them being at the Champions Trophy in 2017 in Wales when Thisara Perera put down Sarfraz Ahmed. At the post match media briefing, the Pakistan captain rubbed salt into wounds saying, \u2018I will remember it for the rest of my life and he will remember it for the rest of his life.","country":"US","clean_url":"island.lk","author":null,"rights":"island.lk","link":"http://island.lk/dahamdi-wins-womens-chess-grand-prix-2021/","rank":"52379","topic":"business","language":"en","title":"Dahamdi wins Women's Chess Grand Prix 2021","published_date":"2021-02-23 02:57:28","_id":"fac1538249ba125f9ab72e80346f3597","_score":12.532016}],"user_input":{"q":"Papare","search_in":"title_summary","lang":null,"country":null,"from":"2021-02-23 00:00:00","to":null,"ranked_only":"True","from_rank":null,"to_rank":null,"sort_by":"relevancy","page":1,"size":5,"sources":null,"not_sources":null,"topic":null,"media":"False"}}
